{
  "href" : "https://api.spotify.com/v1/artists/1S2S00lgLYLGHWA44qGEUs/albums?offset=0&limit=20&include_groups=album,single,compilation,appears_on&market=US",
  "items" : [ {
    "album_group" : "album",
    "album_type" : "album",
    "artists" : [ {
      "external_urls" : {
        "spotify" : "https://open.spotify.com/artist/1S2S00lgLYLGHWA44qGEUs"
      },
      "href" : "https://api.spotify.com/v1/artists/1S2S00lgLYLGHWA44qGEUs",
      "id" : "1S2S00lgLYLGHWA44qGEUs",
      "name" : "Gen Hoshino",
      "type" : "artist",
      "uri" : "spotify:artist:1S2S00lgLYLGHWA44qGEUs"
    } ],
    "external_urls" : {
      "spotify" : "https://open.spotify.com/album/7oFLY1YL5bBI32UHsmQO6q"
    },
    "href" : "https://api.spotify.com/v1/albums/7oFLY1YL5bBI32UHsmQO6q",
    "id" : "7oFLY1YL5bBI32UHsmQO6q",
    "images" : [ {
      "height" : 640,
      "url" : "https://i.scdn.co/image/ab67616d0000b27302a856097c809fb56c23cfb2",
      "width" : 640
    }, {
      "height" : 300,
      "url" : "https://i.scdn.co/image/ab67616d00001e0202a856097c809fb56c23cfb2",
      "width" : 300
    }, {
      "height" : 64,
      "url" : "https://i.scdn.co/image/ab67616d0000485102a856097c809fb56c23cfb2",
      "width" : 64
    } ],
    "name" : "POP VIRUS",
    "release_date" : "2018-12-19",
    "release_date_precision" : "day",
    "total_tracks" : 14,
    "type" : "album",
    "uri" : "spotify:album:7oFLY1YL5bBI32UHsmQO6q"
  }, {
    "album_group" : "album",
    "album_type" : "album",
    "artists" : [ {
      "external_urls" : {
        "spotify" : "https://open.spotify.com/artist/1S2S00lgLYLGHWA44qGEUs"
      },
      "href" : "https://api.spotify.com/v1/artists/1S2S00lgLYLGHWA44qGEUs",
      "id" : "1S2S00lgLYLGHWA44qGEUs",
      "name" : "Gen Hoshino",
      "type" : "artist",
      "uri" : "spotify:artist:1S2S00lgLYLGHWA44qGEUs"
    } ],
    "external_urls" : {
      "spotify" : "https://open.spotify.com/album/1vtIqjn25qHypqyoI21q8d"
    },
    "href" : "https://api.spotify.com/v1/albums/1vtIqjn25qHypqyoI21q8d",
    "id" : "1vtIqjn25qHypqyoI21q8d",
    "images" : [ {
      "height" : 640,
      "url" : "https://i.scdn.co/image/ab67616d0000b2735d947999f612f4a45915da1e",
      "width" : 640
    }, {
      "height" : 300,
      "url" : "https://i.scdn.co/image/ab67616d00001e025d947999f612f4a45915da1e",
      "width" : 300
    }, {
      "height" : 64,
      "url" : "https://i.scdn.co/image/ab67616d000048515d947999f612f4a45915da1e",
      "width" : 64
    } ],
    "name" : "YELLOW DANCER",
    "release_date" : "2015-12-02",
    "release_date_precision" : "day",
    "total_tracks" : 14,
    "type" : "album",
    "uri" : "spotify:album:1vtIqjn25qHypqyoI21q8d"
  }, {
    "album_group" : "album",
    "album_type" : "album",
    "artists" : [ {
      "external_urls" : {
        "spotify" : "https://open.spotify.com/artist/1S2S00lgLYLGHWA44qGEUs"
      },
      "href" : "https://api.spotify.com/v1/artists/1S2S00lgLYLGHWA44qGEUs",
      "id" : "1S2S00lgLYLGHWA44qGEUs",
      "name" : "Gen Hoshino",
      "type" : "artist",
      "uri" : "spotify:artist:1S2S00lgLYLGHWA44qGEUs"
    } ],
    "external_urls" : {
      "spotify" : "https://open.spotify.com/album/7GJtALMajef2QQw7cyzXyx"
    },
    "href" : "https://api.spotify.com/v1/albums/7GJtALMajef2QQw7cyzXyx",
    "id" : "7GJtALMajef2QQw7cyzXyx",
    "images" : [ {
      "height" : 640,
      "url" : "https://i.scdn.co/image/ab67616d0000b273ed1fac2bec8e107dedceaa3f",
      "width" : 640
    }, {
      "height" : 300,
      "url" : "https://i.scdn.co/image/ab67616d00001e02ed1fac2bec8e107dedceaa3f",
      "width" : 300
    }, {
      "height" : 64,
      "url" : "https://i.scdn.co/image/ab67616d00004851ed1fac2bec8e107dedceaa3f",
      "width" : 64
    } ],
    "name" : "Stranger",
    "release_date" : "2013-05-01",
    "release_date_precision" : "day",
    "total_tracks" : 13,
    "type" : "album",
    "uri" : "spotify:album:7GJtALMajef2QQw7cyzXyx"
  }, {
    "album_group" : "album",
    "album_type" : "album",
    "artists" : [ {
      "external_urls" : {
        "spotify" : "https://open.spotify.com/artist/1S2S00lgLYLGHWA44qGEUs"
      },
      "href" : "https://api.spotify.com/v1/artists/1S2S00lgLYLGHWA44qGEUs",
      "id" : "1S2S00lgLYLGHWA44qGEUs",
      "name" : "Gen Hoshino",
      "type" : "artist",
      "uri" : "spotify:artist:1S2S00lgLYLGHWA44qGEUs"
    } ],
    "external_urls" : {
      "spotify" : "https://open.spotify.com/album/6gPzhi9DkK9XXbH9PZuDR8"
    },
    "href" : "https://api.spotify.com/v1/albums/6gPzhi9DkK9XXbH9PZuDR8",
    "id" : "6gPzhi9DkK9XXbH9PZuDR8",
    "images" : [ {
      "height" : 640,
      "url" : "https://i.scdn.co/image/ab67616d0000b273d5ed0345ded8c1209895bb2d",
      "width" : 640
    }, {
      "height" : 300,
      "url" : "https://i.scdn.co/image/ab67616d00001e02d5ed0345ded8c1209895bb2d",
      "width" : 300
    }, {
      "height" : 64,
      "url" : "https://i.scdn.co/image/ab67616d00004851d5ed0345ded8c1209895bb2d",
      "width" : 64
    } ],
    "name" : "Episode",
    "release_date" : "2011-09-28",
    "release_date_precision" : "day",
    "total_tracks" : 13,
    "type" : "album",
    "uri" : "spotify:album:6gPzhi9DkK9XXbH9PZuDR8"
  }, {
    "album_group" : "album",
    "album_type" : "album",
    "artists" : [ {
      "external_urls" : {
        "spotify" : "https://open.spotify.com/artist/1S2S00lgLYLGHWA44qGEUs"
      },
      "href" : "https://api.spotify.com/v1/artists/1S2S00lgLYLGHWA44qGEUs",
      "id" : "1S2S00lgLYLGHWA44qGEUs",
      "name" : "Gen Hoshino",
      "type" : "artist",
      "uri" : "spotify:artist:1S2S00lgLYLGHWA44qGEUs"
    } ],
    "external_urls" : {
      "spotify" : "https://open.spotify.com/album/2tr63kOkJSfR8PRiIqWkXz"
    },
    "href" : "https://api.spotify.com/v1/albums/2tr63kOkJSfR8PRiIqWkXz",
    "id" : "2tr63kOkJSfR8PRiIqWkXz",
    "images" : [ {
      "height" : 640,
      "url" : "https://i.scdn.co/image/ab67616d0000b273006e2e70bdf1c3def78ef396",
      "width" : 640
    }, {
      "height" : 300,
      "url" : "https://i.scdn.co/image/ab67616d00001e02006e2e70bdf1c3def78ef396",
      "width" : 300
    }, {
      "height" : 64,
      "url" : "https://i.scdn.co/image/ab67616d00004851006e2e70bdf1c3def78ef396",
      "width" : 64
    } ],
    "name" : "Baka no Uta",
    "release_date" : "2010-06-23",
    "release_date_precision" : "day",
    "total_tracks" : 15,
    "type" : "album",
    "uri" : "spotify:album:2tr63kOkJSfR8PRiIqWkXz"
  }, {
    "album_group" : "single",
    "album_type" : "single",
    "artists" : [ {
      "external_urls" : {
        "spotify" : "https://open.spotify.com/artist/1S2S00lgLYLGHWA44qGEUs"
      },
      "href" : "https://api.spotify.com/v1/artists/1S2S00lgLYLGHWA44qGEUs",
      "id" : "1S2S00lgLYLGHWA44qGEUs",
      "name" : "Gen Hoshino",
      "type" : "artist",
      "uri" : "spotify:artist:1S2S00lgLYLGHWA44qGEUs"
    } ],
    "external_urls" : {
      "spotify" : "https://open.spotify.com/album/5lqi2dNCjQsgWZWkiyXuwd"
    },
    "href" : "https://api.spotify.com/v1/albums/5lqi2dNCjQsgWZWkiyXuwd",
    "id" : "5lqi2dNCjQsgWZWkiyXuwd",
    "images" : [ {
      "height" : 640,
      "url" : "https://i.scdn.co/image/ab67616d0000b273fcd68a85a555032c91aa6e78",
      "width" : 640
    }, {
      "height" : 300,
      "url" : "https://i.scdn.co/image/ab67616d00001e02fcd68a85a555032c91aa6e78",
      "width" : 300
    }, {
      "height" : 64,
      "url" : "https://i.scdn.co/image/ab67616d00004851fcd68a85a555032c91aa6e78",
      "width" : 64
    } ],
    "name" : "Dancing On The Inside (Potluck Mix)",
    "release_date" : "2020-06-12",
    "release_date_precision" : "day",
    "total_tracks" : 1,
    "type" : "album",
    "uri" : "spotify:album:5lqi2dNCjQsgWZWkiyXuwd"
  }, {
    "album_group" : "single",
    "album_type" : "single",
    "artists" : [ {
      "external_urls" : {
        "spotify" : "https://open.spotify.com/artist/1S2S00lgLYLGHWA44qGEUs"
      },
      "href" : "https://api.spotify.com/v1/artists/1S2S00lgLYLGHWA44qGEUs",
      "id" : "1S2S00lgLYLGHWA44qGEUs",
      "name" : "Gen Hoshino",
      "type" : "artist",
      "uri" : "spotify:artist:1S2S00lgLYLGHWA44qGEUs"
    } ],
    "external_urls" : {
      "spotify" : "https://open.spotify.com/album/5cJKQHjMY2k19tGNS2QdCe"
    },
    "href" : "https://api.spotify.com/v1/albums/5cJKQHjMY2k19tGNS2QdCe",
    "id" : "5cJKQHjMY2k19tGNS2QdCe",
    "images" : [ {
      "height" : 640,
      "url" : "https://i.scdn.co/image/ab67616d0000b2736ccbca3e545541dc74449999",
      "width" : 640
    }, {
      "height" : 300,
      "url" : "https://i.scdn.co/image/ab67616d00001e026ccbca3e545541dc74449999",
      "width" : 300
    }, {
      "height" : 64,
      "url" : "https://i.scdn.co/image/ab67616d000048516ccbca3e545541dc74449999",
      "width" : 64
    } ],
    "name" : "Dancing On The Inside",
    "release_date" : "2020-05-08",
    "release_date_precision" : "day",
    "total_tracks" : 1,
    "type" : "album",
    "uri" : "spotify:album:5cJKQHjMY2k19tGNS2QdCe"
  }, {
    "album_group" : "single",
    "album_type" : "single",
    "artists" : [ {
      "external_urls" : {
        "spotify" : "https://open.spotify.com/artist/1S2S00lgLYLGHWA44qGEUs"
      },
      "href" : "https://api.spotify.com/v1/artists/1S2S00lgLYLGHWA44qGEUs",
      "id" : "1S2S00lgLYLGHWA44qGEUs",
      "name" : "Gen Hoshino",
      "type" : "artist",
      "uri" : "spotify:artist:1S2S00lgLYLGHWA44qGEUs"
    } ],
    "external_urls" : {
      "spotify" : "https://open.spotify.com/album/2ejyLOljyWuPWtSCHaxIue"
    },
    "href" : "https://api.spotify.com/v1/albums/2ejyLOljyWuPWtSCHaxIue",
    "id" : "2ejyLOljyWuPWtSCHaxIue",
    "images" : [ {
      "height" : 640,
      "url" : "https://i.scdn.co/image/ab67616d0000b273cc9f2db3f78d7deda694ef9a",
      "width" : 640
    }, {
      "height" : 300,
      "url" : "https://i.scdn.co/image/ab67616d00001e02cc9f2db3f78d7deda694ef9a",
      "width" : 300
    }, {
      "height" : 64,
      "url" : "https://i.scdn.co/image/ab67616d00004851cc9f2db3f78d7deda694ef9a",
      "width" : 64
    } ],
    "name" : "Same Thing",
    "release_date" : "2019-10-14",
    "release_date_precision" : "day",
    "total_tracks" : 4,
    "type" : "album",
    "uri" : "spotify:album:2ejyLOljyWuPWtSCHaxIue"
  }, {
    "album_group" : "single",
    "album_type" : "single",
    "artists" : [ {
      "external_urls" : {
        "spotify" : "https://open.spotify.com/artist/1S2S00lgLYLGHWA44qGEUs"
      },
      "href" : "https://api.spotify.com/v1/artists/1S2S00lgLYLGHWA44qGEUs",
      "id" : "1S2S00lgLYLGHWA44qGEUs",
      "name" : "Gen Hoshino",
      "type" : "artist",
      "uri" : "spotify:artist:1S2S00lgLYLGHWA44qGEUs"
    } ],
    "external_urls" : {
      "spotify" : "https://open.spotify.com/album/2qiA2JQR9MpFuCGJ3Lwxfv"
    },
    "href" : "https://api.spotify.com/v1/albums/2qiA2JQR9MpFuCGJ3Lwxfv",
    "id" : "2qiA2JQR9MpFuCGJ3Lwxfv",
    "images" : [ {
      "height" : 640,
      "url" : "https://i.scdn.co/image/ab67616d0000b273d6cfb049894fffa2b2cefa31",
      "width" : 640
    }, {
      "height" : 300,
      "url" : "https://i.scdn.co/image/ab67616d00001e02d6cfb049894fffa2b2cefa31",
      "width" : 300
    }, {
      "height" : 64,
      "url" : "https://i.scdn.co/image/ab67616d00004851d6cfb049894fffa2b2cefa31",
      "width" : 64
    } ],
    "name" : "Idea",
    "release_date" : "2019-08-30",
    "release_date_precision" : "day",
    "total_tracks" : 1,
    "type" : "album",
    "uri" : "spotify:album:2qiA2JQR9MpFuCGJ3Lwxfv"
  }, {
    "album_group" : "single",
    "album_type" : "single",
    "artists" : [ {
      "external_urls" : {
        "spotify" : "https://open.spotify.com/artist/1S2S00lgLYLGHWA44qGEUs"
      },
      "href" : "https://api.spotify.com/v1/artists/1S2S00lgLYLGHWA44qGEUs",
      "id" : "1S2S00lgLYLGHWA44qGEUs",
      "name" : "Gen Hoshino",
      "type" : "artist",
      "uri" : "spotify:artist:1S2S00lgLYLGHWA44qGEUs"
    } ],
    "external_urls" : {
      "spotify" : "https://open.spotify.com/album/5VGCJPjawUCJhP4PG2IKtp"
    },
    "href" : "https://api.spotify.com/v1/albums/5VGCJPjawUCJhP4PG2IKtp",
    "id" : "5VGCJPjawUCJhP4PG2IKtp",
    "images" : [ {
      "height" : 640,
      "url" : "https://i.scdn.co/image/ab67616d0000b2731e2d04a5ab3d84ff8b6c4f3b",
      "width" : 640
    }, {
      "height" : 300,
      "url" : "https://i.scdn.co/image/ab67616d00001e021e2d04a5ab3d84ff8b6c4f3b",
      "width" : 300
    }, {
      "height" : 64,
      "url" : "https://i.scdn.co/image/ab67616d000048511e2d04a5ab3d84ff8b6c4f3b",
      "width" : 64
    } ],
    "name" : "Doraemon",
    "release_date" : "2018-02-28",
    "release_date_precision" : "day",
    "total_tracks" : 4,
    "type" : "album",
    "uri" : "spotify:album:5VGCJPjawUCJhP4PG2IKtp"
  }, {
    "album_group" : "single",
    "album_type" : "single",
    "artists" : [ {
      "external_urls" : {
        "spotify" : "https://open.spotify.com/artist/1S2S00lgLYLGHWA44qGEUs"
      },
      "href" : "https://api.spotify.com/v1/artists/1S2S00lgLYLGHWA44qGEUs",
      "id" : "1S2S00lgLYLGHWA44qGEUs",
      "name" : "Gen Hoshino",
      "type" : "artist",
      "uri" : "spotify:artist:1S2S00lgLYLGHWA44qGEUs"
    } ],
    "external_urls" : {
      "spotify" : "https://open.spotify.com/album/1oJznhV4m2H2PeeNkCnKbR"
    },
    "href" : "https://api.spotify.com/v1/albums/1oJznhV4m2H2PeeNkCnKbR",
    "id" : "1oJznhV4m2H2PeeNkCnKbR",
    "images" : [ {
      "height" : 640,
      "url" : "https://i.scdn.co/image/ab67616d0000b27388fa8c939bc74f28d2a95d43",
      "width" : 640
    }, {
      "height" : 300,
      "url" : "https://i.scdn.co/image/ab67616d00001e0288fa8c939bc74f28d2a95d43",
      "width" : 300
    }, {
      "height" : 64,
      "url" : "https://i.scdn.co/image/ab67616d0000485188fa8c939bc74f28d2a95d43",
      "width" : 64
    } ],
    "name" : "Family Song",
    "release_date" : "2017-08-16",
    "release_date_precision" : "day",
    "total_tracks" : 4,
    "type" : "album",
    "uri" : "spotify:album:1oJznhV4m2H2PeeNkCnKbR"
  }, {
    "album_group" : "single",
    "album_type" : "single",
    "artists" : [ {
      "external_urls" : {
        "spotify" : "https://open.spotify.com/artist/1S2S00lgLYLGHWA44qGEUs"
      },
      "href" : "https://api.spotify.com/v1/artists/1S2S00lgLYLGHWA44qGEUs",
      "id" : "1S2S00lgLYLGHWA44qGEUs",
      "name" : "Gen Hoshino",
      "type" : "artist",
      "uri" : "spotify:artist:1S2S00lgLYLGHWA44qGEUs"
    } ],
    "external_urls" : {
      "spotify" : "https://open.spotify.com/album/0dQHVhTZlbT2S7vq6pM0t7"
    },
    "href" : "https://api.spotify.com/v1/albums/0dQHVhTZlbT2S7vq6pM0t7",
    "id" : "0dQHVhTZlbT2S7vq6pM0t7",
    "images" : [ {
      "height" : 640,
      "url" : "https://i.scdn.co/image/ab67616d0000b273128cb14e20a95fb5e953787c",
      "width" : 640
    }, {
      "height" : 300,
      "url" : "https://i.scdn.co/image/ab67616d00001e02128cb14e20a95fb5e953787c",
      "width" : 300
    }, {
      "height" : 64,
      "url" : "https://i.scdn.co/image/ab67616d00004851128cb14e20a95fb5e953787c",
      "width" : 64
    } ],
    "name" : "Koi",
    "release_date" : "2016-10-05",
    "release_date_precision" : "day",
    "total_tracks" : 4,
    "type" : "album",
    "uri" : "spotify:album:0dQHVhTZlbT2S7vq6pM0t7"
  }, {
    "album_group" : "single",
    "album_type" : "single",
    "artists" : [ {
      "external_urls" : {
        "spotify" : "https://open.spotify.com/artist/1S2S00lgLYLGHWA44qGEUs"
      },
      "href" : "https://api.spotify.com/v1/artists/1S2S00lgLYLGHWA44qGEUs",
      "id" : "1S2S00lgLYLGHWA44qGEUs",
      "name" : "Gen Hoshino",
      "type" : "artist",
      "uri" : "spotify:artist:1S2S00lgLYLGHWA44qGEUs"
    } ],
    "external_urls" : {
      "spotify" : "https://open.spotify.com/album/5729BXTN8NmCuCkjQTlSL6"
    },
    "href" : "https://api.spotify.com/v1/albums/5729BXTN8NmCuCkjQTlSL6",
    "id" : "5729BXTN8NmCuCkjQTlSL6",
    "images" : [ {
      "height" : 640,
      "url" : "https://i.scdn.co/image/ab67616d0000b273e950efc25b80bd2cefe6510c",
      "width" : 640
    }, {
      "height" : 300,
      "url" : "https://i.scdn.co/image/ab67616d00001e02e950efc25b80bd2cefe6510c",
      "width" : 300
    }, {
      "height" : 64,
      "url" : "https://i.scdn.co/image/ab67616d00004851e950efc25b80bd2cefe6510c",
      "width" : 64
    } ],
    "name" : "SUN",
    "release_date" : "2015-05-27",
    "release_date_precision" : "day",
    "total_tracks" : 4,
    "type" : "album",
    "uri" : "spotify:album:5729BXTN8NmCuCkjQTlSL6"
  }, {
    "album_group" : "single",
    "album_type" : "single",
    "artists" : [ {
      "external_urls" : {
        "spotify" : "https://open.spotify.com/artist/1S2S00lgLYLGHWA44qGEUs"
      },
      "href" : "https://api.spotify.com/v1/artists/1S2S00lgLYLGHWA44qGEUs",
      "id" : "1S2S00lgLYLGHWA44qGEUs",
      "name" : "Gen Hoshino",
      "type" : "artist",
      "uri" : "spotify:artist:1S2S00lgLYLGHWA44qGEUs"
    } ],
    "external_urls" : {
      "spotify" : "https://open.spotify.com/album/1a7bYgO5K7wzEhZgGlnZ23"
    },
    "href" : "https://api.spotify.com/v1/albums/1a7bYgO5K7wzEhZgGlnZ23",
    "id" : "1a7bYgO5K7wzEhZgGlnZ23",
    "images" : [ {
      "height" : 640,
      "url" : "https://i.scdn.co/image/ab67616d0000b2734f7f4e63a6cef6be896c6b13",
      "width" : 640
    }, {
      "height" : 300,
      "url" : "https://i.scdn.co/image/ab67616d00001e024f7f4e63a6cef6be896c6b13",
      "width" : 300
    }, {
      "height" : 64,
      "url" : "https://i.scdn.co/image/ab67616d000048514f7f4e63a6cef6be896c6b13",
      "width" : 64
    } ],
    "name" : "Crazy Crazy/Sakura no Mori",
    "release_date" : "2014-06-11",
    "release_date_precision" : "day",
    "total_tracks" : 4,
    "type" : "album",
    "uri" : "spotify:album:1a7bYgO5K7wzEhZgGlnZ23"
  }, {
    "album_group" : "single",
    "album_type" : "single",
    "artists" : [ {
      "external_urls" : {
        "spotify" : "https://open.spotify.com/artist/1S2S00lgLYLGHWA44qGEUs"
      },
      "href" : "https://api.spotify.com/v1/artists/1S2S00lgLYLGHWA44qGEUs",
      "id" : "1S2S00lgLYLGHWA44qGEUs",
      "name" : "Gen Hoshino",
      "type" : "artist",
      "uri" : "spotify:artist:1S2S00lgLYLGHWA44qGEUs"
    } ],
    "external_urls" : {
      "spotify" : "https://open.spotify.com/album/6pLmK5RozflZe7VjZDFaHf"
    },
    "href" : "https://api.spotify.com/v1/albums/6pLmK5RozflZe7VjZDFaHf",
    "id" : "6pLmK5RozflZe7VjZDFaHf",
    "images" : [ {
      "height" : 640,
      "url" : "https://i.scdn.co/image/ab67616d0000b273e5f69680ab829e54872df299",
      "width" : 640
    }, {
      "height" : 300,
      "url" : "https://i.scdn.co/image/ab67616d00001e02e5f69680ab829e54872df299",
      "width" : 300
    }, {
      "height" : 64,
      "url" : "https://i.scdn.co/image/ab67616d00004851e5f69680ab829e54872df299",
      "width" : 64
    } ],
    "name" : "Why Don't You Play In Hell?",
    "release_date" : "2013-10-02",
    "release_date_precision" : "day",
    "total_tracks" : 2,
    "type" : "album",
    "uri" : "spotify:album:6pLmK5RozflZe7VjZDFaHf"
  }, {
    "album_group" : "single",
    "album_type" : "single",
    "artists" : [ {
      "external_urls" : {
        "spotify" : "https://open.spotify.com/artist/1S2S00lgLYLGHWA44qGEUs"
      },
      "href" : "https://api.spotify.com/v1/artists/1S2S00lgLYLGHWA44qGEUs",
      "id" : "1S2S00lgLYLGHWA44qGEUs",
      "name" : "Gen Hoshino",
      "type" : "artist",
      "uri" : "spotify:artist:1S2S00lgLYLGHWA44qGEUs"
    } ],
    "external_urls" : {
      "spotify" : "https://open.spotify.com/album/6A3T1oQsAklCecRLwiKPps"
    },
    "href" : "https://api.spotify.com/v1/albums/6A3T1oQsAklCecRLwiKPps",
    "id" : "6A3T1oQsAklCecRLwiKPps",
    "images" : [ {
      "height" : 640,
      "url" : "https://i.scdn.co/image/ab67616d0000b27316704b50f75a77eaaf0cab78",
      "width" : 640
    }, {
      "height" : 300,
      "url" : "https://i.scdn.co/image/ab67616d00001e0216704b50f75a77eaaf0cab78",
      "width" : 300
    }, {
      "height" : 64,
      "url" : "https://i.scdn.co/image/ab67616d0000485116704b50f75a77eaaf0cab78",
      "width" : 64
    } ],
    "name" : "Gag",
    "release_date" : "2013-05-08",
    "release_date_precision" : "day",
    "total_tracks" : 2,
    "type" : "album",
    "uri" : "spotify:album:6A3T1oQsAklCecRLwiKPps"
  }, {
    "album_group" : "single",
    "album_type" : "single",
    "artists" : [ {
      "external_urls" : {
        "spotify" : "https://open.spotify.com/artist/1S2S00lgLYLGHWA44qGEUs"
      },
      "href" : "https://api.spotify.com/v1/artists/1S2S00lgLYLGHWA44qGEUs",
      "id" : "1S2S00lgLYLGHWA44qGEUs",
      "name" : "Gen Hoshino",
      "type" : "artist",
      "uri" : "spotify:artist:1S2S00lgLYLGHWA44qGEUs"
    } ],
    "external_urls" : {
      "spotify" : "https://open.spotify.com/album/7c3Bu72RPwlH8WcvVV0K5N"
    },
    "href" : "https://api.spotify.com/v1/albums/7c3Bu72RPwlH8WcvVV0K5N",
    "id" : "7c3Bu72RPwlH8WcvVV0K5N",
    "images" : [ {
      "height" : 640,
      "url" : "https://i.scdn.co/image/ab67616d0000b27357fd15e4a1cff7fdc7fa2b74",
      "width" : 640
    }, {
      "height" : 300,
      "url" : "https://i.scdn.co/image/ab67616d00001e0257fd15e4a1cff7fdc7fa2b74",
      "width" : 300
    }, {
      "height" : 64,
      "url" : "https://i.scdn.co/image/ab67616d0000485157fd15e4a1cff7fdc7fa2b74",
      "width" : 64
    } ],
    "name" : "Shiranai",
    "release_date" : "2012-11-28",
    "release_date_precision" : "day",
    "total_tracks" : 4,
    "type" : "album",
    "uri" : "spotify:album:7c3Bu72RPwlH8WcvVV0K5N"
  }, {
    "album_group" : "single",
    "album_type" : "single",
    "artists" : [ {
      "external_urls" : {
        "spotify" : "https://open.spotify.com/artist/1S2S00lgLYLGHWA44qGEUs"
      },
      "href" : "https://api.spotify.com/v1/artists/1S2S00lgLYLGHWA44qGEUs",
      "id" : "1S2S00lgLYLGHWA44qGEUs",
      "name" : "Gen Hoshino",
      "type" : "artist",
      "uri" : "spotify:artist:1S2S00lgLYLGHWA44qGEUs"
    } ],
    "external_urls" : {
      "spotify" : "https://open.spotify.com/album/5YyPibZaKicJjbISgppRHK"
    },
    "href" : "https://api.spotify.com/v1/albums/5YyPibZaKicJjbISgppRHK",
    "id" : "5YyPibZaKicJjbISgppRHK",
    "images" : [ {
      "height" : 640,
      "url" : "https://i.scdn.co/image/ab67616d0000b2733cefd1d3356bcea11f0d445b",
      "width" : 640
    }, {
      "height" : 300,
      "url" : "https://i.scdn.co/image/ab67616d00001e023cefd1d3356bcea11f0d445b",
      "width" : 300
    }, {
      "height" : 64,
      "url" : "https://i.scdn.co/image/ab67616d000048513cefd1d3356bcea11f0d445b",
      "width" : 64
    } ],
    "name" : "Yume no Sotohe",
    "release_date" : "2012-07-04",
    "release_date_precision" : "day",
    "total_tracks" : 4,
    "type" : "album",
    "uri" : "spotify:album:5YyPibZaKicJjbISgppRHK"
  }, {
    "album_group" : "single",
    "album_type" : "single",
    "artists" : [ {
      "external_urls" : {
        "spotify" : "https://open.spotify.com/artist/1S2S00lgLYLGHWA44qGEUs"
      },
      "href" : "https://api.spotify.com/v1/artists/1S2S00lgLYLGHWA44qGEUs",
      "id" : "1S2S00lgLYLGHWA44qGEUs",
      "name" : "Gen Hoshino",
      "type" : "artist",
      "uri" : "spotify:artist:1S2S00lgLYLGHWA44qGEUs"
    } ],
    "external_urls" : {
      "spotify" : "https://open.spotify.com/album/20B8tfOi3zX4Fi1Qm3f5CY"
    },
    "href" : "https://api.spotify.com/v1/albums/20B8tfOi3zX4Fi1Qm3f5CY",
    "id" : "20B8tfOi3zX4Fi1Qm3f5CY",
    "images" : [ {
      "height" : 640,
      "url" : "https://i.scdn.co/image/ab67616d0000b273ffb27c3a831c63aed9cd0bb9",
      "width" : 640
    }, {
      "height" : 300,
      "url" : "https://i.scdn.co/image/ab67616d00001e02ffb27c3a831c63aed9cd0bb9",
      "width" : 300
    }, {
      "height" : 64,
      "url" : "https://i.scdn.co/image/ab67616d00004851ffb27c3a831c63aed9cd0bb9",
      "width" : 64
    } ],
    "name" : "Film",
    "release_date" : "2012-02-08",
    "release_date_precision" : "day",
    "total_tracks" : 5,
    "type" : "album",
    "uri" : "spotify:album:20B8tfOi3zX4Fi1Qm3f5CY"
  }, {
    "album_group" : "single",
    "album_type" : "single",
    "artists" : [ {
      "external_urls" : {
        "spotify" : "https://open.spotify.com/artist/1S2S00lgLYLGHWA44qGEUs"
      },
      "href" : "https://api.spotify.com/v1/artists/1S2S00lgLYLGHWA44qGEUs",
      "id" : "1S2S00lgLYLGHWA44qGEUs",
      "name" : "Gen Hoshino",
      "type" : "artist",
      "uri" : "spotify:artist:1S2S00lgLYLGHWA44qGEUs"
    } ],
    "external_urls" : {
      "spotify" : "https://open.spotify.com/album/1MU427kNQa3hclVCxa5cKv"
    },
    "href" : "https://api.spotify.com/v1/albums/1MU427kNQa3hclVCxa5cKv",
    "id" : "1MU427kNQa3hclVCxa5cKv",
    "images" : [ {
      "height" : 640,
      "url" : "https://i.scdn.co/image/ab67616d0000b27376c38205519c9a4bcc4a7924",
      "width" : 640
    }, {
      "height" : 300,
      "url" : "https://i.scdn.co/image/ab67616d00001e0276c38205519c9a4bcc4a7924",
      "width" : 300
    }, {
      "height" : 64,
      "url" : "https://i.scdn.co/image/ab67616d0000485176c38205519c9a4bcc4a7924",
      "width" : 64
    } ],
    "name" : "Kudaranai no Nakani",
    "release_date" : "2011-03-02",
    "release_date_precision" : "day",
    "total_tracks" : 5,
    "type" : "album",
    "uri" : "spotify:album:1MU427kNQa3hclVCxa5cKv"
  } ],
  "limit" : 20,
  "next" : "https://api.spotify.com/v1/artists/1S2S00lgLYLGHWA44qGEUs/albums?offset=20&limit=20&include_groups=album,single,compilation,appears_on&market=US",
  "offset" : 0,
  "previous" : null,
  "total" : 22
}